<svg id="telegram" viewBox="0 0 41 41" xmlns="http://www.w3.org/2000/svg">
  <path d="M26.7546 29.6478C26.6636 29.6478 26.5726 29.6171 26.5119 29.5864C26.3602 29.5249 25.4047 28.7415 25.2379 28.6186L22.0225 26.13C21.7192 25.8996 21.2186 25.4695 20.9456 25.2851C20.8546 25.3312 19.5958 26.514 19.3986 26.6984C19.1863 26.8827 18.9891 27.0978 18.7768 27.2668C18.7313 27.2975 18.7161 27.3282 18.6706 27.3743L17.6241 28.3267C17.6241 28.1885 18.0033 25.8689 18.0184 25.746C18.0943 25.3312 18.1549 24.8704 18.2156 24.4556C18.3066 23.8872 18.2156 23.9333 18.5189 23.6414L19.2773 22.9194C19.6109 22.5815 20.0811 22.1821 20.4148 21.8441C20.4906 21.7673 20.5361 21.7366 20.612 21.6598C20.6878 21.583 20.7181 21.5523 20.794 21.4908L21.2641 21.03C21.4916 20.8149 21.7343 20.6152 21.9467 20.4001L22.3258 20.0315C22.5685 19.7857 22.8415 19.5706 23.0842 19.3095L23.7515 18.6797C23.797 18.6336 23.8122 18.6336 23.8577 18.5875C23.9335 18.526 23.979 18.4646 24.0397 18.4031C24.2975 18.1574 24.5705 17.9269 24.8132 17.6812C25.0559 17.4354 25.3289 17.2203 25.5716 16.9592L26.9062 15.6995C26.9669 15.6381 27.0276 15.5613 27.1034 15.5152C27.2399 15.4076 27.3764 15.2847 27.4674 15.1465C27.5433 15.039 27.5584 15.0236 27.5433 14.87C27.4523 14.3477 26.5422 15.0697 26.2541 15.2387L24.7374 16.1911C24.5705 16.2986 24.4037 16.3908 24.2369 16.4983L23.7364 16.8209C23.5544 16.9284 23.4027 17.036 23.2207 17.1435C22.3713 17.6658 21.5523 18.2034 20.703 18.7257C20.5361 18.8333 20.3693 18.9254 20.2025 19.033L17.6847 20.6152C17.5937 20.6613 17.5179 20.7227 17.4269 20.7842C17.3359 20.8456 17.2601 20.8917 17.1691 20.9378C17.0781 20.9993 17.0022 21.03 16.9264 21.0914L15.7434 21.8441C15.713 21.8595 15.713 21.8749 15.6675 21.8902C15.5917 21.9363 15.4552 21.8595 15.3794 21.8288L11.1175 20.3694C10.9051 20.2926 10.3288 20.0776 10.1771 20.0622C10.2226 20.0007 10.2378 20.0161 10.3136 19.9854L12.6948 18.9715C13.5442 18.6182 14.3632 18.2342 15.2277 17.8962C15.3339 17.8501 15.4249 17.8194 15.531 17.758L17.1084 17.0821C17.2146 17.036 17.3207 16.9899 17.4269 16.9438L22.159 14.9161C22.3865 14.8239 22.5837 14.7471 22.796 14.6549C23.4027 14.3784 24.07 14.1173 24.6919 13.8408L29.1206 11.9667C29.4391 11.8284 30.1216 11.5826 30.3946 11.429C30.3946 11.7055 30.152 12.7962 30.0913 13.1649C29.9245 14.1173 29.7273 15.1004 29.5301 16.0375C29.151 17.9423 28.8021 19.8625 28.4229 21.7673C28.3471 22.1514 28.2713 22.5354 28.1954 22.9194C28.0438 23.6875 27.8921 24.4402 27.7556 25.2237C27.5888 26.1454 27.3461 27.19 27.1944 28.0963C27.1641 28.2653 26.9517 29.4481 26.9062 29.5249C26.8759 29.5864 26.7849 29.6632 26.7091 29.6632L26.7546 29.6478ZM9.31259 0H31.1682C33.7314 0 36.0671 1.05995 37.7506 2.76508C39.4341 4.47021 40.4807 6.83589 40.4807 9.432V31.568C40.4807 34.1641 39.4341 36.5144 37.7506 38.2349C36.0671 39.9401 33.7314 41.0154 31.1682 41.0154H9.31259C6.74938 41.0154 4.42884 39.9554 2.73014 38.2503C1.04661 36.5298 -0.0150757 34.1795 -0.0150757 31.5834V9.44736C-0.0150757 6.85125 1.03144 4.48557 2.71497 2.78044C4.41367 1.07531 6.73421 0.0153616 9.29743 0.0153616L9.31259 0ZM31.1682 1.68977H9.31259C7.20439 1.68977 5.29335 2.56538 3.91316 3.96328C2.53297 5.36118 1.66845 7.29674 1.66845 9.432V31.568C1.66845 33.7033 2.53297 35.6388 3.91316 37.0367C5.29335 38.4346 7.20439 39.3102 9.31259 39.3102H31.1682C33.2764 39.3102 35.1874 38.4346 36.5676 37.0367C37.9478 35.6388 38.8123 33.7033 38.8123 31.568V9.432C38.8123 7.29674 37.9478 5.36118 36.5676 3.96328C35.1874 2.56538 33.2764 1.68977 31.1682 1.68977ZM8.11441 19.8932C8.11441 20.3387 8.17507 20.6306 8.40258 20.9685C8.55425 21.1989 8.76658 21.3833 8.99409 21.5369C9.43393 21.8441 10.1316 22.0285 10.6473 22.2128C10.9355 22.305 11.2236 22.4125 11.5118 22.5047L13.256 23.0884C13.3773 23.1345 14.0295 23.3803 14.1357 23.3803C14.1357 23.4725 14.6514 25.1469 14.7272 25.3927C14.8334 25.7306 14.9244 26.0686 15.0305 26.4065C15.3035 27.236 15.5159 28.0656 15.7889 28.8951C16.0619 29.7246 16.4259 30.5695 17.4117 30.5695C17.6392 30.5695 17.8971 30.4927 18.0639 30.4159C18.1398 30.3852 18.2611 30.3237 18.3218 30.2623L19.1559 29.4942C19.2924 29.3559 19.4441 29.2484 19.5806 29.0948C19.6261 29.0487 19.6261 29.0487 19.6868 29.0026L19.8991 28.8183C19.9446 28.7876 19.9598 28.7568 20.0053 28.7108L20.2176 28.5264C20.2935 28.4496 20.3541 28.4189 20.43 28.3421C20.5058 28.2653 20.5665 28.2345 20.6423 28.1577L20.9608 27.8659C21.0063 27.8351 21.0366 27.8044 21.067 27.7737C21.1276 27.7891 21.0973 27.7891 21.1428 27.8198C21.1731 27.8505 21.2035 27.8659 21.2338 27.8812C21.2945 27.9273 21.34 27.958 21.3855 28.0041C21.4916 28.0963 21.613 28.1731 21.7192 28.2653C22.3107 28.7415 22.9173 29.187 23.5089 29.6478C23.5695 29.6939 23.615 29.7246 23.6757 29.7861C24.0549 30.0933 24.5705 30.5234 24.98 30.7999L25.4654 31.1686C25.7081 31.3683 26.2086 31.5219 26.5726 31.5219C27.1489 31.5219 27.6039 31.4297 28.0134 31.1225C28.1499 31.015 28.3016 30.8767 28.4229 30.7385C28.4836 30.6617 28.5443 30.6002 28.5898 30.5081C28.6959 30.3237 28.8021 30.1547 28.8324 29.9397L29.8031 24.8704C30.2581 22.6122 30.6525 20.3541 31.1075 18.0959L31.8962 14.0405C31.9872 13.6103 32.3815 11.7516 32.3815 11.2907C32.3815 10.8145 32.2147 10.3691 31.9113 10.0311L31.699 9.8314C30.7131 9.07868 29.6211 9.75459 28.6504 10.154C27.8163 10.4919 26.9669 10.8606 26.1327 11.2139C24.5705 11.8745 23.0235 12.5658 21.4613 13.2109L20.3845 13.6718C19.8991 13.8868 19.4138 14.0865 18.9284 14.2862L15.6979 15.6688C15.5614 15.7302 15.4704 15.761 15.3339 15.8224L14.621 16.1296C13.6503 16.5444 12.71 16.9592 11.7393 17.3586C11.4966 17.4507 11.254 17.5583 11.0265 17.6658C10.5411 17.8655 10.0709 18.0959 9.5856 18.2803C9.00926 18.5107 8.46325 18.8794 8.22057 19.4785C8.17507 19.5706 8.12957 19.7857 8.12957 19.9239L8.11441 19.8932Z"/>
</svg>
