<svg id="whatsapp" viewBox="0 0 41 41" xmlns="http://www.w3.org/2000/svg">
  <path d="M12.1677 29.2638C12.2284 28.68 12.7441 27.0517 12.9413 26.299C13.0626 25.8074 13.0626 25.7921 12.8199 25.3927C10.5449 21.6291 11.1667 17.2971 13.6693 14.2709C18.8867 7.95729 30.2012 11.1986 30.0799 20.7995C30.0344 24.8243 27.183 28.1731 23.8311 29.3559C20.7977 30.4312 18.4924 29.8168 15.9443 28.5111C15.2921 28.1885 13.0171 29.1409 12.1677 29.2484V29.2638ZM9.83204 0H31.6876C34.2508 0 36.5865 1.05995 38.2701 2.76508C39.9536 4.47021 41.0001 6.83589 41.0001 9.432V31.568C41.0001 34.1641 39.9536 36.5144 38.2701 38.2349C36.5865 39.9401 34.2508 41.0154 31.6876 41.0154H9.83204C7.26882 41.0154 4.93311 39.9554 3.24958 38.2503C1.56605 36.5451 0.519531 34.1795 0.519531 31.5834V9.44736C0.519531 6.85125 1.56605 4.50094 3.26475 2.78044C4.94828 1.07531 7.28399 0.0153616 9.8472 0.0153616L9.83204 0ZM31.6876 1.68977H9.83204C7.72383 1.68977 5.81279 2.56538 4.4326 3.96328C3.05241 5.36118 2.1879 7.29674 2.1879 9.432V31.568C2.1879 33.7033 3.05241 35.6388 4.4326 37.0367C5.81279 38.4346 7.739 39.3102 9.83204 39.3102H31.6876C33.7958 39.3102 35.7068 38.4346 37.087 37.0367C38.4672 35.6388 39.3317 33.7033 39.3317 31.568V9.432C39.3317 7.29674 38.4672 5.36118 37.087 3.96328C35.7068 2.56538 33.7958 1.68977 31.6876 1.68977ZM23.5885 21.8134C23.1941 22.1206 22.8908 22.6737 22.5571 23.0423C21.6622 24.0408 17.4155 20.2465 18.1435 19.2634C19.19 17.8501 19.1294 18.526 18.1739 16.0989C17.8857 15.3616 17.9008 15.1311 16.9908 15.1311C15.7016 15.1311 14.4124 17.2357 15.5045 19.6167C16.096 20.9224 17.5217 22.5815 18.4165 23.3496C19.6147 24.3942 20.8129 25.2237 22.7543 25.746C24.3316 26.1761 26.6522 25.577 26.455 23.0731C25.9848 22.8119 24.1496 21.8134 23.5885 21.8134ZM9.9382 23.6414C10.1505 23.7951 10.0444 23.6107 10.0292 23.964C10.1657 24.0255 10.1202 23.8258 10.1809 24.2713C11.1971 26.4526 11.1061 25.7767 10.5449 27.958C10.2567 29.0641 9.60453 30.9689 9.51353 31.9674C10.469 31.7984 15.0646 30.4466 15.3983 30.4927C15.8836 30.5541 20.1759 33.2731 25.454 30.7846C28.8059 29.2023 31.3236 26.0225 31.8848 22.3203C32.3094 19.5092 31.7028 18.5721 31.8089 17.7733C31.7938 17.7426 31.7786 17.7119 31.7634 17.6965C31.4449 17.1281 31.5663 16.9284 30.9748 15.6381C30.6562 14.9622 30.3226 14.3938 29.9131 13.8254C24.1345 5.66842 11.5156 8.5103 9.74103 18.4646C9.22536 21.3372 9.9837 22.6737 9.95337 23.6722L9.9382 23.6414Z"/>
</svg>
