<svg id="close" viewBox="0 0 30 30" xmlns="http://www.w3.org/2000/svg">
  <path d="M8.09081 6.82444L14.9152 13.6489L21.7397 6.82444L23.0764 8.16118L16.252 14.9856L23.0061 21.7397L21.6693 23.0764L14.9152 16.3224L8.16117 23.0764L6.82443 21.7397L13.5785 14.9856L6.75407 8.16118L8.09081 6.82444Z"/>
</svg>
