<svg id="ios" width="25" height="31" viewBox="0 0 25 31" xmlns="http://www.w3.org/2000/svg">
  <path fill-rule="evenodd" clip-rule="evenodd" d="M20.7876 15.9481C20.7876 13.2347 22.5544 11.2355 24.0457 10.3089C23.2544 8.75853 20.7098 7.26957 18.0365 7.26957C15.7463 7.26957 14.4826 8.49397 12.8488 8.6679C11.5632 8.80475 9.59737 7.37979 7.69423 7.37979C3.05131 7.37979 0 11.5203 0 16.0583C0 20.1923 1.35545 24.0487 3.55515 26.9251C5.47282 29.4326 6.56044 31.1462 10.2901 29.6802C15.6932 27.5564 16.3936 31.8504 20.0336 29.6282C21.4722 28.7499 24.3007 24.6674 24.8474 22.187C23.5318 21.4726 22.8032 21.06 22.038 19.9855C21.2843 18.9271 20.7877 17.6291 20.7877 15.948L20.7876 15.9481ZM18.5194 0.0355624C17.1121 -0.275013 14.5776 1.53552 14.1075 2.09081C13.7495 2.51375 13.1368 3.42746 12.838 4.12963C12.6409 4.59282 12.0329 6.51033 12.4405 6.89541C12.8409 7.2736 14.5691 6.59918 14.9835 6.38994C15.7738 5.99085 16.3374 5.44864 16.8296 4.92971C17.819 3.88665 18.698 1.99338 18.5194 0.0355624Z"/>
</svg>
